{
  "accountStatus": "LOCKED",
  "creationDate": "string",
  "currentlyLogged": false,
  "lastResetPasswordChangedDate": "string",
  "lastResetPasswordRequest": "string",
  "lastSuccessfulLogin": "string",
  "lockedTime": "string",
  "loginFailCount": 9,
  "remoteAddress": "string",
  "resetPassword": true,
  "userName": "string"
}