[
  {
    "category": "class-of-service",
    "deviceGroupName": "Versa-DeviceGroup",
    "id": 102,
    "organization": "Versa",
    "priority": 1,
    "serviceTemplate": "QOS-Rule",
    "templateName": "Post-Staging-Template"
  }
]