[
  {
    "category": "applications",
    "template_name": "applications1"
  },
  {
    "category": "applications",
    "template_name": "applications1"
  },
  {
    "category": "applications",
    "template_name": "applications1"
  }
]