{
  "$id": "schema.json",
  "type": "object",
  "schema": "http://json-schema.org/draft-07/schema#",
  "translate": false,
  "dynamicfields": true,
  "properties": {
    "ph_request_type": {
      "type": "string",
      "description": "type of request (internal to adapter)",
      "default": "getOrganizationDHCPOptionsProfile",
      "enum": [
        "getOrganizationDHCPOptionsProfile",
        "getPostStagingTemplateDhcp6LeaseProfile",
        "createPostStagingTemplateDhcp6LeaseProfile",
        "updatePostStagingTemplateDhcp6LeaseProfile",
        "deletePostStagingTemplateDhcp6LeaseProfile",
        "getPostStagingTemplateDhcp6OptionsProfile",
        "createPostStagingTemplateDhcp6OptionsProfile",
        "updatePostStagingTemplateDhcp6OptionsProfile",
        "deletePostStagingTemplateDhcp6OptionsProfile",
        "getPostStagingTemplateDhcp6AddressPool",
        "createPostStagingTemplateDhcp6AddressPool",
        "updatePostStagingTemplateDhcp6AddressPool",
        "deletePostStagingTemplateDhcp6AddressPool",
        "getPostStagingTemplateDhcp6Server",
        "createPostStagingTemplateDhcp6Server",
        "updatePostStagingTemplateDhcp6Server",
        "deletePostStagingTemplateDhcp6Server"
      ],
      "external_name": "ph_request_type"
    }
  },
  "definitions": {}
}