{
  "versanms.sdwan-controller-list": [
    {
      "controllerName": "string",
      "lastModifiedBy": "string",
      "lastModifiedTime": "string",
      "siteId": "string",
      "workflowStatus": "Failed"
    },
    {
      "controllerName": "string",
      "lastModifiedBy": "string",
      "lastModifiedTime": "string",
      "siteId": "string",
      "workflowStatus": "Modified"
    },
    {
      "controllerName": "string",
      "lastModifiedBy": "string",
      "lastModifiedTime": "string",
      "siteId": "string",
      "workflowStatus": "Deploying"
    },
    {
      "controllerName": "string",
      "lastModifiedBy": "string",
      "lastModifiedTime": "string",
      "siteId": "string",
      "workflowStatus": "Modified"
    },
    {
      "controllerName": "string",
      "lastModifiedBy": "string",
      "lastModifiedTime": "string",
      "siteId": "string",
      "workflowStatus": "Deployed"
    },
    {
      "controllerName": "string",
      "lastModifiedBy": "string",
      "lastModifiedTime": "string",
      "siteId": "string",
      "workflowStatus": "Deploying"
    },
    {
      "controllerName": "string",
      "lastModifiedBy": "string",
      "lastModifiedTime": "string",
      "siteId": "string",
      "workflowStatus": "Deployed"
    },
    {
      "controllerName": "string",
      "lastModifiedBy": "string",
      "lastModifiedTime": "string",
      "siteId": "string",
      "workflowStatus": "Failed"
    },
    {
      "controllerName": "string",
      "lastModifiedBy": "string",
      "lastModifiedTime": "string",
      "siteId": "string",
      "workflowStatus": "Deploying"
    },
    {
      "controllerName": "string",
      "lastModifiedBy": "string",
      "lastModifiedTime": "string",
      "siteId": "string",
      "workflowStatus": "Deployed"
    }
  ]
}