{
  "List": {
    "value": [
      {
        "alarmHandlings": [
          {
            "assignedBy": "ConsoleOperator",
            "description": "Administrator",
            "state": "closed",
            "time": "2020-04-13 09:16:02.986123",
            "user": "assigned"
          },
          {
            "assignedBy": "ConsoleOperator",
            "description": "Administrator",
            "state": "closed",
            "time": "2020-04-13 09:16:02.986123",
            "user": "assigned"
          }
        ],
        "device": "SDWAN-Branch2",
        "deviceGroup": "San-Jose-DG",
        "deviceName": "SDWAN-Branch2",
        "isCleared": "true",
        "lastAlarmText": "CPU usage on appliance R2Controller exceeded hard limit",
        "lastPerceivedSeverity": "critical",
        "lastStatusChangeTimeStamp": "2020-01-01 12:02:44",
        "object": "vni-0/0",
        "org": "Tenant-2",
        "serialNum": "string",
        "severity": "string",
        "specific-problem": "string",
        "statusChanges": [
          {
            "alarmText": "string",
            "eventTime": "2020-04-08 00:28:42",
            "receivedTime": "2020-04-08 00:29:12.8594",
            "severity": "major"
          },
          {
            "alarmText": "string",
            "eventTime": "2020-04-08 00:28:42",
            "receivedTime": "2020-04-08 00:29:12.8594",
            "severity": "major"
          },
          {
            "alarmText": "string",
            "eventTime": "2020-04-08 00:28:42",
            "receivedTime": "2020-04-08 00:29:12.8594",
            "severity": "major"
          },
          {
            "alarmText": "string",
            "eventTime": "2020-04-08 00:28:42",
            "receivedTime": "2020-04-08 00:29:12.8594",
            "severity": "major"
          },
          {
            "alarmText": "string",
            "eventTime": "2020-04-08 00:28:42",
            "receivedTime": "2020-04-08 00:29:12.8594",
            "severity": "major"
          },
          {
            "alarmText": "string",
            "eventTime": "2020-04-08 00:28:42",
            "receivedTime": "2020-04-08 00:29:12.8594",
            "severity": "major"
          },
          {
            "alarmText": "string",
            "eventTime": "2020-04-08 00:28:42",
            "receivedTime": "2020-04-08 00:29:12.8594",
            "severity": "major"
          },
          {
            "alarmText": "string",
            "eventTime": "2020-04-08 00:28:42",
            "receivedTime": "2020-04-08 00:29:12.8594",
            "severity": "major"
          },
          {
            "alarmText": "string",
            "eventTime": "2020-04-08 00:28:42",
            "receivedTime": "2020-04-08 00:29:12.8594",
            "severity": "major"
          }
        ],
        "type": "interface-down"
      },
      {
        "alarmHandlings": [
          {
            "assignedBy": "ConsoleOperator",
            "description": "Administrator",
            "state": "closed",
            "time": "2020-04-13 09:16:02.986123",
            "user": "assigned"
          }
        ],
        "device": "SDWAN-Branch2",
        "deviceGroup": "San-Jose-DG",
        "deviceName": "SDWAN-Branch2",
        "isCleared": "true",
        "lastAlarmText": "CPU usage on appliance R2Controller exceeded hard limit",
        "lastPerceivedSeverity": "critical",
        "lastStatusChangeTimeStamp": "2020-01-01 12:02:44",
        "object": "vni-0/0",
        "org": "Tenant-2",
        "serialNum": "string",
        "severity": "string",
        "specific-problem": "string",
        "statusChanges": [
          {
            "alarmText": "string",
            "eventTime": "2020-04-08 00:28:42",
            "receivedTime": "2020-04-08 00:29:12.8594",
            "severity": "major"
          },
          {
            "alarmText": "string",
            "eventTime": "2020-04-08 00:28:42",
            "receivedTime": "2020-04-08 00:29:12.8594",
            "severity": "major"
          },
          {
            "alarmText": "string",
            "eventTime": "2020-04-08 00:28:42",
            "receivedTime": "2020-04-08 00:29:12.8594",
            "severity": "major"
          }
        ],
        "type": "interface-down"
      },
      {
        "alarmHandlings": [
          {
            "assignedBy": "ConsoleOperator",
            "description": "Administrator",
            "state": "closed",
            "time": "2020-04-13 09:16:02.986123",
            "user": "assigned"
          },
          {
            "assignedBy": "ConsoleOperator",
            "description": "Administrator",
            "state": "closed",
            "time": "2020-04-13 09:16:02.986123",
            "user": "assigned"
          },
          {
            "assignedBy": "ConsoleOperator",
            "description": "Administrator",
            "state": "closed",
            "time": "2020-04-13 09:16:02.986123",
            "user": "assigned"
          },
          {
            "assignedBy": "ConsoleOperator",
            "description": "Administrator",
            "state": "closed",
            "time": "2020-04-13 09:16:02.986123",
            "user": "assigned"
          },
          {
            "assignedBy": "ConsoleOperator",
            "description": "Administrator",
            "state": "closed",
            "time": "2020-04-13 09:16:02.986123",
            "user": "assigned"
          }
        ],
        "device": "SDWAN-Branch2",
        "deviceGroup": "San-Jose-DG",
        "deviceName": "SDWAN-Branch2",
        "isCleared": "true",
        "lastAlarmText": "CPU usage on appliance R2Controller exceeded hard limit",
        "lastPerceivedSeverity": "critical",
        "lastStatusChangeTimeStamp": "2020-01-01 12:02:44",
        "object": "vni-0/0",
        "org": "Tenant-2",
        "serialNum": "string",
        "severity": "string",
        "specific-problem": "string",
        "statusChanges": [
          {
            "alarmText": "string",
            "eventTime": "2020-04-08 00:28:42",
            "receivedTime": "2020-04-08 00:29:12.8594",
            "severity": "major"
          },
          {
            "alarmText": "string",
            "eventTime": "2020-04-08 00:28:42",
            "receivedTime": "2020-04-08 00:29:12.8594",
            "severity": "major"
          },
          {
            "alarmText": "string",
            "eventTime": "2020-04-08 00:28:42",
            "receivedTime": "2020-04-08 00:29:12.8594",
            "severity": "major"
          },
          {
            "alarmText": "string",
            "eventTime": "2020-04-08 00:28:42",
            "receivedTime": "2020-04-08 00:29:12.8594",
            "severity": "major"
          },
          {
            "alarmText": "string",
            "eventTime": "2020-04-08 00:28:42",
            "receivedTime": "2020-04-08 00:29:12.8594",
            "severity": "major"
          },
          {
            "alarmText": "string",
            "eventTime": "2020-04-08 00:28:42",
            "receivedTime": "2020-04-08 00:29:12.8594",
            "severity": "major"
          },
          {
            "alarmText": "string",
            "eventTime": "2020-04-08 00:28:42",
            "receivedTime": "2020-04-08 00:29:12.8594",
            "severity": "major"
          },
          {
            "alarmText": "string",
            "eventTime": "2020-04-08 00:28:42",
            "receivedTime": "2020-04-08 00:29:12.8594",
            "severity": "major"
          },
          {
            "alarmText": "string",
            "eventTime": "2020-04-08 00:28:42",
            "receivedTime": "2020-04-08 00:29:12.8594",
            "severity": "major"
          }
        ],
        "type": "interface-down"
      },
      {
        "alarmHandlings": [
          {
            "assignedBy": "ConsoleOperator",
            "description": "Administrator",
            "state": "closed",
            "time": "2020-04-13 09:16:02.986123",
            "user": "assigned"
          },
          {
            "assignedBy": "ConsoleOperator",
            "description": "Administrator",
            "state": "closed",
            "time": "2020-04-13 09:16:02.986123",
            "user": "assigned"
          },
          {
            "assignedBy": "ConsoleOperator",
            "description": "Administrator",
            "state": "closed",
            "time": "2020-04-13 09:16:02.986123",
            "user": "assigned"
          },
          {
            "assignedBy": "ConsoleOperator",
            "description": "Administrator",
            "state": "closed",
            "time": "2020-04-13 09:16:02.986123",
            "user": "assigned"
          },
          {
            "assignedBy": "ConsoleOperator",
            "description": "Administrator",
            "state": "closed",
            "time": "2020-04-13 09:16:02.986123",
            "user": "assigned"
          },
          {
            "assignedBy": "ConsoleOperator",
            "description": "Administrator",
            "state": "closed",
            "time": "2020-04-13 09:16:02.986123",
            "user": "assigned"
          },
          {
            "assignedBy": "ConsoleOperator",
            "description": "Administrator",
            "state": "closed",
            "time": "2020-04-13 09:16:02.986123",
            "user": "assigned"
          },
          {
            "assignedBy": "ConsoleOperator",
            "description": "Administrator",
            "state": "closed",
            "time": "2020-04-13 09:16:02.986123",
            "user": "assigned"
          },
          {
            "assignedBy": "ConsoleOperator",
            "description": "Administrator",
            "state": "closed",
            "time": "2020-04-13 09:16:02.986123",
            "user": "assigned"
          }
        ],
        "device": "SDWAN-Branch2",
        "deviceGroup": "San-Jose-DG",
        "deviceName": "SDWAN-Branch2",
        "isCleared": "true",
        "lastAlarmText": "CPU usage on appliance R2Controller exceeded hard limit",
        "lastPerceivedSeverity": "critical",
        "lastStatusChangeTimeStamp": "2020-01-01 12:02:44",
        "object": "vni-0/0",
        "org": "Tenant-2",
        "serialNum": "string",
        "severity": "string",
        "specific-problem": "string",
        "statusChanges": [
          {
            "alarmText": "string",
            "eventTime": "2020-04-08 00:28:42",
            "receivedTime": "2020-04-08 00:29:12.8594",
            "severity": "major"
          },
          {
            "alarmText": "string",
            "eventTime": "2020-04-08 00:28:42",
            "receivedTime": "2020-04-08 00:29:12.8594",
            "severity": "major"
          },
          {
            "alarmText": "string",
            "eventTime": "2020-04-08 00:28:42",
            "receivedTime": "2020-04-08 00:29:12.8594",
            "severity": "major"
          },
          {
            "alarmText": "string",
            "eventTime": "2020-04-08 00:28:42",
            "receivedTime": "2020-04-08 00:29:12.8594",
            "severity": "major"
          },
          {
            "alarmText": "string",
            "eventTime": "2020-04-08 00:28:42",
            "receivedTime": "2020-04-08 00:29:12.8594",
            "severity": "major"
          },
          {
            "alarmText": "string",
            "eventTime": "2020-04-08 00:28:42",
            "receivedTime": "2020-04-08 00:29:12.8594",
            "severity": "major"
          },
          {
            "alarmText": "string",
            "eventTime": "2020-04-08 00:28:42",
            "receivedTime": "2020-04-08 00:29:12.8594",
            "severity": "major"
          },
          {
            "alarmText": "string",
            "eventTime": "2020-04-08 00:28:42",
            "receivedTime": "2020-04-08 00:29:12.8594",
            "severity": "major"
          },
          {
            "alarmText": "string",
            "eventTime": "2020-04-08 00:28:42",
            "receivedTime": "2020-04-08 00:29:12.8594",
            "severity": "major"
          },
          {
            "alarmText": "string",
            "eventTime": "2020-04-08 00:28:42",
            "receivedTime": "2020-04-08 00:29:12.8594",
            "severity": "major"
          }
        ],
        "type": "interface-down"
      },
      {
        "alarmHandlings": [
          {
            "assignedBy": "ConsoleOperator",
            "description": "Administrator",
            "state": "closed",
            "time": "2020-04-13 09:16:02.986123",
            "user": "assigned"
          },
          {
            "assignedBy": "ConsoleOperator",
            "description": "Administrator",
            "state": "closed",
            "time": "2020-04-13 09:16:02.986123",
            "user": "assigned"
          }
        ],
        "device": "SDWAN-Branch2",
        "deviceGroup": "San-Jose-DG",
        "deviceName": "SDWAN-Branch2",
        "isCleared": "true",
        "lastAlarmText": "CPU usage on appliance R2Controller exceeded hard limit",
        "lastPerceivedSeverity": "critical",
        "lastStatusChangeTimeStamp": "2020-01-01 12:02:44",
        "object": "vni-0/0",
        "org": "Tenant-2",
        "serialNum": "string",
        "severity": "string",
        "specific-problem": "string",
        "statusChanges": [
          {
            "alarmText": "string",
            "eventTime": "2020-04-08 00:28:42",
            "receivedTime": "2020-04-08 00:29:12.8594",
            "severity": "major"
          },
          {
            "alarmText": "string",
            "eventTime": "2020-04-08 00:28:42",
            "receivedTime": "2020-04-08 00:29:12.8594",
            "severity": "major"
          },
          {
            "alarmText": "string",
            "eventTime": "2020-04-08 00:28:42",
            "receivedTime": "2020-04-08 00:29:12.8594",
            "severity": "major"
          },
          {
            "alarmText": "string",
            "eventTime": "2020-04-08 00:28:42",
            "receivedTime": "2020-04-08 00:29:12.8594",
            "severity": "major"
          },
          {
            "alarmText": "string",
            "eventTime": "2020-04-08 00:28:42",
            "receivedTime": "2020-04-08 00:29:12.8594",
            "severity": "major"
          },
          {
            "alarmText": "string",
            "eventTime": "2020-04-08 00:28:42",
            "receivedTime": "2020-04-08 00:29:12.8594",
            "severity": "major"
          },
          {
            "alarmText": "string",
            "eventTime": "2020-04-08 00:28:42",
            "receivedTime": "2020-04-08 00:29:12.8594",
            "severity": "major"
          }
        ],
        "type": "interface-down"
      },
      {
        "alarmHandlings": [
          {
            "assignedBy": "ConsoleOperator",
            "description": "Administrator",
            "state": "closed",
            "time": "2020-04-13 09:16:02.986123",
            "user": "assigned"
          },
          {
            "assignedBy": "ConsoleOperator",
            "description": "Administrator",
            "state": "closed",
            "time": "2020-04-13 09:16:02.986123",
            "user": "assigned"
          },
          {
            "assignedBy": "ConsoleOperator",
            "description": "Administrator",
            "state": "closed",
            "time": "2020-04-13 09:16:02.986123",
            "user": "assigned"
          },
          {
            "assignedBy": "ConsoleOperator",
            "description": "Administrator",
            "state": "closed",
            "time": "2020-04-13 09:16:02.986123",
            "user": "assigned"
          }
        ],
        "device": "SDWAN-Branch2",
        "deviceGroup": "San-Jose-DG",
        "deviceName": "SDWAN-Branch2",
        "isCleared": "true",
        "lastAlarmText": "CPU usage on appliance R2Controller exceeded hard limit",
        "lastPerceivedSeverity": "critical",
        "lastStatusChangeTimeStamp": "2020-01-01 12:02:44",
        "object": "vni-0/0",
        "org": "Tenant-2",
        "serialNum": "string",
        "severity": "string",
        "specific-problem": "string",
        "statusChanges": [
          {
            "alarmText": "string",
            "eventTime": "2020-04-08 00:28:42",
            "receivedTime": "2020-04-08 00:29:12.8594",
            "severity": "major"
          },
          {
            "alarmText": "string",
            "eventTime": "2020-04-08 00:28:42",
            "receivedTime": "2020-04-08 00:29:12.8594",
            "severity": "major"
          },
          {
            "alarmText": "string",
            "eventTime": "2020-04-08 00:28:42",
            "receivedTime": "2020-04-08 00:29:12.8594",
            "severity": "major"
          },
          {
            "alarmText": "string",
            "eventTime": "2020-04-08 00:28:42",
            "receivedTime": "2020-04-08 00:29:12.8594",
            "severity": "major"
          },
          {
            "alarmText": "string",
            "eventTime": "2020-04-08 00:28:42",
            "receivedTime": "2020-04-08 00:29:12.8594",
            "severity": "major"
          },
          {
            "alarmText": "string",
            "eventTime": "2020-04-08 00:28:42",
            "receivedTime": "2020-04-08 00:29:12.8594",
            "severity": "major"
          },
          {
            "alarmText": "string",
            "eventTime": "2020-04-08 00:28:42",
            "receivedTime": "2020-04-08 00:29:12.8594",
            "severity": "major"
          },
          {
            "alarmText": "string",
            "eventTime": "2020-04-08 00:28:42",
            "receivedTime": "2020-04-08 00:29:12.8594",
            "severity": "major"
          },
          {
            "alarmText": "string",
            "eventTime": "2020-04-08 00:28:42",
            "receivedTime": "2020-04-08 00:29:12.8594",
            "severity": "major"
          },
          {
            "alarmText": "string",
            "eventTime": "2020-04-08 00:28:42",
            "receivedTime": "2020-04-08 00:29:12.8594",
            "severity": "major"
          }
        ],
        "type": "interface-down"
      }
    ]
  }
}