{
  "downloadTime": "string",
  "flavour": "string",
  "info": "string",
  "packageName": "string",
  "packageType": "string",
  "packageVersion": "string",
  "releaseDate": "string",
  "size": 9,
  "status": "string"
}