[
  {
    "name": "pro-1-1Default-Application",
    "organization": "Tenant1",
    "status": "saved"
  },
  {
    "name": "pro-1-1Default-Application",
    "organization": "Tenant1",
    "status": "saved"
  },
  {
    "name": "pro-1-1Default-Application",
    "organization": "Tenant1",
    "status": "saved"
  },
  {
    "name": "pro-1-1Default-Application",
    "organization": "Tenant1",
    "status": "saved"
  }
]